%YAML 1.1
%TAG !u! tag:unity3d.com,2011:
--- !u!1045 &1
EditorBuildSettings:
  m_ObjectHideFlags: 0
  serializedVersion: 2
  m_Scenes:
  - enabled: 0
    path: 
    guid: 00000000000000000000000000000000
  - enabled: 0
    path: 
    guid: 00000000000000000000000000000000
  - enabled: 1
    path: Assets/Scenes/MenuScene.unity
    guid: 9664248010cc24c409ef38177d8fe072
  - enabled: 1
    path: Assets/Scenes/MapScene.unity
    guid: 91dfc288257877f4fa3b1ff49d8306cf
  - enabled: 1
    path: Assets/Scenes/CharacterScene.unity
    guid: 039dd1573605f0147a52bb59b5bfff94
  - enabled: 1
    path: Assets/Scenes/ARScene.unity
    guid: 39b3e26ff2b77c44581a0cceb24dd0d1
  m_configObjects: {}
